Homework 4: [YOUR NAME HERE]
…
dat_stretched = dat|> stretch_tsibble(.init = 3) 
dat_stretched

# A tsibble: 52 x 3 [1D]
# Key:       .id [8]
   date       value   .id
   <date>     <dbl> <int>
 1 2023-10-01  1.22     1
 2 2023-10-02  1.74     1
 3 2023-10-03  3.29     1
 4 2023-10-01  1.22     2
 5 2023-10-02  1.74     2
 6 2023-10-03  3.29     2
 7 2023-10-04  4.15     2
 8 2023-10-01  1.22     3
 9 2023-10-02  1.74     3
10 2023-10-03  3.29     3
# ℹ 42 more rows
…
